{
    "swagger": "2.0",
    "produces": [
      "application/json"
    ],
    "consumes": [
      "application/json"
    ],
    "responses": {
      "PreDebitFailed": {
        "description": "Pre-debit Failed",
        "schema": {
          "$ref": "#/definitions/ErrorPreDebit"
        }
      },
      "PreDebitForbidden": {
        "description": "Forbidden",
        "schema": {
          "$ref": "#/definitions/Forbidden"
        }
      },
      "PreDebitSuccess": {
        "description": "Pre-debit Success",
        "schema": {
          "$ref": "#/definitions/RespPreSuccess"
        }
      }
    },
    "paths": {
      "/corp_wallet/debit_pre": {
        "post": {
          "summary": "Pre-Debit",
          "description": "Deduct amount from the wallet and withhold it temporarily until a Settle or Cancel API call was made. Follow parameters and configurations below as guidelines to do pre-debit transactions:\n > REMINDER: For proper ledgering and error handling, DO NOT USE Debit API call for reversal process. Although technically the process for reversal is Debit or Credit, it is recommended to use Reversal API call instead.\n<center>\n\n|&nbsp;&nbsp;&nbsp;&nbsp;METHOD&nbsp;&nbsp;&nbsp;&nbsp;|URL|\n|:------:|:---:|\n|POST |/corp_wallet/debit_pre|\n\n</center>",
         "parameters": [
            {
              "name": "body",
              "in": "body",
              "description": "Attachment resource",
              "required": true,
              "schema": {
                "$ref": "#/definitions/preDebitBody"
              }
            },
            {
              "name": "Authorization",
              "in": "header",
              "type": "string",
              "value": "Basic <account hash>",
              "description": "Account hash can be generated by encoding (Base64) the merchant username and password. Example in javascript:\n```javascript\nvar username = \"myuser\";\nvar password = \"mypass\";\nvar accountHash = Base64.encode(username + \":\" + password);\nvar authHeader = \"Authorization : Basic \" + accountHash;\nconsole.log(authHeader);```"
            },
            {
              "name": "Content-Type",
              "in": "header",
              "type": "string",
              "default": "application/json",
              "description": "The request media type"
            }
          ],
          "produces": [
              "application/json; charset=utf-8"
          ],
          "consumes": [
              "application/json"
          ],
          "responses": {
            "200": {
              "$ref": "#/responses/PreDebitSuccess"
            },
            "400": {
              "$ref": "#/responses/PreDebitFailed"
            },
            "401": {
              "$ref": "#/responses/PreDebitForbidden"
            }
          },
          "x-code-samples": [
            {
              "lang": "JavaScript",
              "label": "Postman",
              "source": "// PUT THIS IN PRE-REQUEST SCRIPT FOR SIGNATURE:\n\nvar CryptoJS = require('crypto-js');\n\nvar jsonData = JSON.parse(pm.request.body);\n\nvar mkey = '<your mkey here>';\nvar amount =jsonData.amount;\nvar walletId = jsonData.wallet_id;\nvar externalRef = jsonData.payload.external_ref;\nvar remarks = jsonData.payload.remarks;\nvar trxGroup = jsonData.payload.transaction_group;\nvar raw = amount + walletId + externalRef + remarks + trxGroup + mkey;\nvar signature = CryptoJS.enc.Hex.stringify(CryptoJS.SHA512(raw));\npm.globals.set(\"signature\", signature);\n\n//PUT THIS IN BODY (raw, JSON(Application/json)):\n\n{\n  \"amount\": 10.00,\n  \"wallet_id\": \"<Wallet ID Here>\",\n  \"signature\":\"{{signature}}\",\n  \"payload\": {\n      \"external_ref\": \"SHF74624FD18\",\n      \"remarks\": \"Merchant debit equest.\",\n      \"transaction_group\": \"FADF53463M\"\n   }\n}\n"
            },
            {
              "lang": "JavaScript",
              "label": "Nodejs",
              "source": "const querystring = require('querystring');\nconst https = require('https');\n\nvar postData = querystring.stringify({\n    {\n        'amount': 100,\n        'wallet_id': '<Wallet ID here>',\n        'signature':'<Signature here>',\n        'payload': {\n            'external_ref': 'SHF74624FD18',\n            'remarks': 'Merchant debit request.',\n            'transaction_group': 'FADF53463M'\n        }\n    }\n});\n\nvar options = {\n  hostname: '<base url here>',\n  port: 443,\n  path: '/corp_wallet/debit_pre',\n  method: 'POST',\n  headers: {\n       'Content-Type': 'application/json',\n       'Authorization': <Auth here>\n     }\n};\n\nvar req = https.request(options, (res) => {\n  console.log('statusCode:', res.statusCode);\n  console.log('headers:', res.headers);\n\n  res.on('data', (d) => {\n    process.stdout.write(d);\n  });\n});\n\nreq.on('error', (e) => {\n  console.error(e);\n});\n\nreq.write(postData);\nreq.end();\n"
            },
            {
              "lang": "PHP",
              "label": "PHP",
              "source": "No code available yet."
            },
            {
              "lang": "C#",
              "label": ".Net",
              "source": "No code available yet."
            }
          ]
        }
      }
    },
    "definitions": {
        "preDebitBody": {
          "type": "object",
          "properties": {
            "amount": {
              "name": "amount",
              "description": "Amount to be deducted from the wallet",
              "type": "decimal",
              "minimum": 1,
              "required": true,
              "allowEmptyValue": false
            },
            "wallet_id": {
              "name": "wallet_id",
              "required": true,
              "description": "Identifier of the wallet where the amount should be deducted",
              "type": "string"
            },
            "payload": {
              "name": "payload",
              "description": "JSON Object that will hold details of the debit transaction.",
              "required": true,
              "type": "object",
              "properties": {
                "external_ref": {
                  "name": "external_ref",
                  "description": "Unique reference number of the transaction generated by the integrating system. Centinel generate its own unique identifier, but for the convenience of the integrating system to fetch records from Centinel using their own reference number, a value for external_ref should be provided. This value should be unique.",
                  "type": "string",
                  "uniqueItems": true,
                  "required": true
                },
                "remarks": {
                  "name": "remarks",
                  "description": "A complete description of the transaction. Centinel doesn’t have a complex categorization of transaction. Each transaction within Centinel is either DEBIT or CREDIT. The integrating system is responsible to properly tag transactions on its end; One good example of remarks is ‘Merchant requested to debit PHP 10,000’.",
                  "type": "string",
                  "required": true
                },
                "transaction_group": {
                  "name": "transaction_group",
                  "description": "This parameter will make transaction history easier to trace (i.e. suspect transactions) because Centinel will group these transactions per transaction group. The integrating system will be the one responsible in generating transaction_group, in addition, the integrating system will be one responsible in determining which transaction belongs to which group.",
                  "type": "string",
                  "required": true
                },
                "external_status": {
                  "name": "external_status",
                  "description": "This parameter is the actual status of the transaction on the integrating system.",
                  "type": "string",
                  "required": false,
                  "enum": [
                    "SUCCESS",
                    "FAILED",
                    "LOAD BACK"
                  ]
                },
                "requestor": {
                  "name": "requestor",
                  "description": "<for edit>",
                  "type": "string",
                  "required": false
                }
              }
            },
            "signature": {
              "name": "signature",
              "required": true,
              "description": "Encrypted string that was dynamically generated using the signature formula:\n```javascript\nsignature = amount + walletId + externalRef + remarks\n+ trxGroup + mkey```",
              "type": "string"
            }
          }
        },
        "ErrorPreDebit": {
            "type": "object",
            "properties": {
              "code": {
                "type": "integer",
                "description": "Standard centinel response code. Some of the possible response content are as follows:\n\n&nbsp;&nbsp;&nbsp;&nbsp;Code&nbsp;&nbsp;&nbsp;&nbsp;| Advise \n------- | ---\nGR008 |The Wallet ID you have provided doesn't match in any of our known wallets.\nGR010 |The outstanding balance in the wallet is insufficient to do the transaction. Please advise the merchant to reload wallet or try a smaller amount.\nGR011 |Wallet is currently locked; thus, any transactions is not allowed.\nGR013 |Cannot process tranasction because the External Reference number you have provided already exist.\nGR026 |The signature provided doesn't match any of our known signature.\nGR027 |The request contains invalid data or required field(s) is/are missing.\nGR028 |The authentication used in sending request is not allowed to do this type of transaction.\n\n",
                "enum": [
                    "GR008",
                    "GR010",
                    "GR011",
                    "GR013",
                    "GR026",
                    "GR027",
                    "GR028"
                ]
              },
              "advise": {
                "type": "string",
                "description": "Details of the error response which may vary depending on the response code. See table on the 'code' parameter above."
              }
            }
        },
        "Forbidden": {
            "type": "object",
            "properties": {
              "code": {
                "type": "string",
                "description": "Standard centinel response code. Some of the possible response content are as follows:\n\n&nbsp;&nbsp;&nbsp;&nbsp;Code&nbsp;&nbsp;&nbsp;&nbsp;| Advise \n------- | ---\nGR008 |The Wallet ID you have provided doesn't match in any of our known wallets.\nGR010 |The outstanding balance in the wallet is insufficient to do the transaction. Please advise the merchant to reload wallet or try a smaller amount.\nGR011 |Wallet is currently locked; thus, any transactions is not allowed.\nGR013 |Cannot process tranasction because the External Reference number you have provided already exist.\nGR026 |The signature provided doesn't match any of our known signature.\nGR027 |The request contains invalid data or required field(s) is/are missing.\nGR028 |The authentication used in sending request is not allowed to do this type of transaction.\nGR050 |The request contains invalid data or required field(s) is/are missing.\nGR028 |The authentication used in sending request is not allowed to do this type of transaction.\n\n",
                "enum": [
                    "GR008",
                    "GR010",
                    "GR011",
                    "GR013",
                    "GR026",
                    "GR027",
                    "GR028"
                ]
              },
              "advise": {
                "type": "string",
                "description": "Details of the error response which may vary depending on the response code. See table on the 'code' parameter above."
              }
            }
        },
        "RespPreSuccess": {
            "type": "object",
            "properties": {
              "code": {
                "type": "string",
                "description": "Standard centinel response code. Some of the possible response content are as follows:\n\n&nbsp;&nbsp;&nbsp;&nbsp;Code&nbsp;&nbsp;&nbsp;&nbsp;| Advise \n------- | ---\nGR001 |Pre-debit request processed successfully. To fully debit the amount, please call the 'debit_settle' API; or 'debit_cancel' to void this transaction and return the amount to the wallet.\nGR050 |Transaction was processed but there is a warning to consider. One example is wallet balance reached the threshold minimum balance required for the merchant, and require an immediate reload of wallet.\n\n",
                "enum": [
                    "GR001",
                    "GR050"
                ]
              },
              "advise": {
                "type": "string",
                "description": "Details of the response. Usually to inform that the pre-debit transaction is success."
              }
            }
        }
    }
  }